{
	"id": "dae",
	"title": "Dynamic effects using Active Effects",
	"description": "replacement for dynamic effects",
  "authors": [{ "name": "tposney" }],
	"version": "10.0.3",
	"compatibility": {
		"minimum": "10.279",
		"verified": 10,
		"maximum": "10.278"
	},
	"scripts": ["libs/tokenizer.min.js"],
	"flags": {
		"compatible": ["dnd5e", "sw5e"],
		"incompatible": ["pf2e"],
		"partial": []
	},
	"esmodules": ["dae.js", "module/patching.js"],
	"relationships": {
		"requires": [
			{ "id": "lib-wrapper", "type": "module" },
			{ "id": "socketlib", "type": "module" }
		]
	},
	"styles": ["css/dae.css", "css/awesomplete.css"],
	"packs": [
		{
			"name": "premadeitems",
			"label": "Premade Items",
			"path": "./packs/premadeitems.db",
			"module": "world",
			"type": "Item",
      "system": "dnd5e",
			"lang": ["en", "de"]
		}
	],
	"languages": [
		{
			"lang": "en",
			"name": "English",
			"path": "lang/en.json"
		},
		{
			"lang": "ja",
			"name": " 日本語",
			"path": "lang/ja.json"
		},
		{
			"lang": "ko",
			"name": "Korean",
			"path": "lang/ko.json"
		},
		{
			"lang": "pt-BR",
			"name": "Português (Brasil)",
			"path": "lang/pt-BR.json"
		},
		{
			"lang": "fr",
			"name": "Français",
			"path": "lang/fr.json"
		},
		{
			"lang": "it",
			"name": "Italian",
			"path": "lang/it.json"
		},
		{
			"lang": "pl",
			"name": "Polski",
			"path": "lang/pl.json"
		}
	],
	"socket": true,
	"url": "https://gitlab.com/tposney/dae",
	"bugs": "https://gitlab.com/tposney/dae/-/issues",
	"allowBugReporter": true,
	"manifest": "https://gitlab.com/tposney/dae/raw/v10/package/module1003.json",
	"download": "https://gitlab.com/tposney/dae/raw/v10/package/dae-v10.0.3.zip"
}
