{
  "name": "dae",
  "title": "Dynamic effects using Active Effects",
  "description": "replacement for dynamic effects",
  "version": "0.1.8",
  "compatibleCoreVersion": "0.7.3",
  "minimumCoreVersion": "0.7.3",
  "scripts": ["libs/tokenizer.min.js"],
  "esmodules": [
    "dae.js", "module/patching.js"
  ],
  "styles": ["css/dae.css"],
  "packs": [
    {
      "name": "premadeitems",
      "label": "Premade Items",
      "system": "dnd5e",
      "path": "./packs/premadeitems.db",
      "module": "world",
      "entity": "Item",
      "lang": ["en", "de"]
    },
    {
      "name": "sample-macros",
      "label": "Sample macros",
      "path": "./packs/sample-macros.db",
      "module": "world",
      "entity": "Macro",
      "lang": ["en", "de"]
    }
  ],
  "languages": [
    {
      "lang": "en",
      "name": "English",
      "path": "lang/en.json"
    },
    {
      "lang": "ja",
      "name": " 日本語",
      "path": "lang/ja.json"
    },
    {
      "lang": "ko",
      "name": "Korean",
      "path": "lang/ko.json"
    },
    {
      "lang": "cn",
      "name": "中文",
      "path": "lang/cn.json"
    },
    {
      "lang": "pt-BR",
      "name": "Português (Brasil)",
      "path": "lang/pt-BR.json"
    },
    {
      "lang": "fr",
      "name": "Français",
      "path": "lang/fr.json"
    }
  ],
  "socket": true,
  "url": "https://gitlab.com/tposney/dae",
  "author": "tposney",
  "manifest": "https://gitlab.com/tposney/dae/raw/master/package/module018.json",
  "download": "https://gitlab.com/tposney/dae/raw/master/package/dae-v0.1.8.zip"
}
